{
  "name": "l5r4",
  "title": "Legend of the Five Rings 4th Edition",
  "description": "System to play L5R 4th edition",
  "author": "Mateo Caycedo Alvarez",
  "version": "0.5.1",
  "minumCoreVersion": "0.8.7",
  "compatibleCoreVersion": "0.8.8",
  "esmodules": [
    "l5r4.js"
  ],
  "styles": [
    "l5r4.css"
  ],
  "background": "l5r4cover.webp",
  "packs": [

  ],
  "languages": [
    {
      "lang": "en",
      "name": "English",
      "path": "lang/en.json"
    },
    {
      "lang": "es",
      "name": "Español",
      "path": "lang/es.json"
    }
  ],
  "gridDistance": 5,
  "gridUnits": "ft",
  "url": "https://bitbucket.org/TeoCay/l5r4",
  "manifest": "https://bitbucket.org/TeoCay/l5r4/raw/master/system.json",
  "download": "https://bitbucket.org/TeoCay/l5r4/get/v0.5.1.zip"
}
